
material {
    name: "Custom material",
    parameters: [
        {
            type: "sampler2d",
            name: "base"
        },
        {
            type: "sampler2d",
            name: "metal"
        },
        {
            type: "sampler2d",
            name: "roughness"
        },
        {
            type: "sampler2d",
            name: "normal"
        },
        {
            type: "sampler2d",
            name: "ambientOcclusion"
        }
    ],
    requires: [
        "position",
        "uv0"
    ],
    shadingModel: "lit",
}

fragment {
    void material(inout MaterialInputs material) {
        prepareMaterial(material);

        material.baseColor = texture(materialParams_base, getUV0());

        material.metallic = texture(materialParams_metal, getUV0()).r;

        material.roughness = texture(materialParams_roughness, getUV0()).r;

        material.normal = texture(materialParams_normal, getUV0()).rgb;
        prepareMaterial(material);

        material.ambientOcclusion = texture(materialParams_ambientOcclusion, getUV0()).r;
    }
}